[
  {
    "method": "Post",
    "path": "/api/cat/upload_image",
    "laravelAuth": "mobile",
    "nodeAuth": "mobile",
    "params": {
      "pathParams": {
        "image": "any image",
        "id": "14",
        "image_type": "1"
      }
    },
    "expected": {
      "response": 200,
      "data": {
        "response": 200,
        "status": true,
        "file": "739487292.png",
        "message": "successfully"
      }
    },
    "actual": {
      "response": 400,
      "data": {
        "response": 400,
        "status": false,
        "message": "Unexpected field",
        "data": null
      }
    },
    "notes": "",
    "priority": "high",
    "batchId": "1"
  },
  {
    "method": "Get",
    "path": "/api/get_sub_cat/cat_id/2",
    "laravelAuth": "mobile",
    "nodeAuth": "mobile",
    "params": {
      "pathParams": null
    },
    "expected": {
      "response": 200,
      "data": {
        "response": 200,
        "data": [
          {
            "id": 17,
            "cat_id": 2,
            "title": "Vegan Milk",
            "preferences": 0,
            "created_at": "2025-07-25 15:31:00",
            "updated_at": "2025-07-25 15:31:00",
            "cat_title": "Updated Test Category Batch12",
            "image_id": null,
            "image": null
          },
          {
            "id": 1000000,
            "cat_id": 2,
            "title": "Vegan Milk",
            "preferences": 0,
            "created_at": null,
            "updated_at": "2025-08-10 11:31:22",
            "cat_title": "Updated Test Category Batch12",
            "image_id": null,
            "image": null
          },
          {
            "id": 1000001,
            "cat_id": 2,
            "title": "Vegan Milk",
            "preferences": 0,
            "created_at": null,
            "updated_at": "2025-08-10 11:34:38",
            "cat_title": "Updated Test Category Batch12",
            "image_id": null,
            "image": null
          },
          {
            "id": 3,
            "cat_id": 2,
            "title": "Fresh Milky",
            "preferences": 1,
            "created_at": "2024-01-23 02:29:22",
            "updated_at": "2025-08-10 17:06:09",
            "cat_title": "Updated Test Category Batch12",
            "image_id": 79,
            "image": "44430322.jpg"
          },
          {
            "id": 22,
            "cat_id": 2,
            "title": "Test SubCategory Batch12 1753616001137",
            "preferences": 1,
            "created_at": "2025-07-27 17:03:42",
            "updated_at": "2025-07-27 17:03:42",
            "cat_title": "Updated Test Category Batch12",
            "image_id": null,
            "image": null
          },
          {
            "id": 4,
            "cat_id": 2,
            "title": "Full Moon Ghee",
            "preferences": 2,
            "created_at": "2024-01-23 02:29:39",
            "updated_at": "2024-11-11 15:53:25",
            "cat_title": "Updated Test Category Batch12",
            "image_id": 76,
            "image": "2097934941.jpg"
          }
        ]
      }
    },
    "actual": {
      "response": 200,
      "data": {
        "response": 200,
        "data": [
          {
            "id": "17",
            "cat_id": "2",
            "title": "Vegan Milk",
            "preferences": 0,
            "created_at": "2025-07-25T15:31:00.000Z",
            "updated_at": "2025-07-25T15:31:00.000Z",
            "images": [],
            "category": {
              "id": 2,
              "title": "Updated Test Category Batch12",
              "preferences": 2,
              "created_at": "2024-01-23 02:28:18",
              "updated_at": "2025-07-27 11:33:39",
              "image_id": 70,
              "image": "2104077764.jpg"
            }
          },
          {
            "id": "1000000",
            "cat_id": "2",
            "title": "Vegan Milk",
            "preferences": 0,
            "created_at": null,
            "updated_at": "2025-08-10T11:31:22.000Z",
            "images": [],
            "category": {
              "id": 2,
              "title": "Updated Test Category Batch12",
              "preferences": 2,
              "created_at": "2024-01-23 02:28:18",
              "updated_at": "2025-07-27 11:33:39",
              "image_id": 70,
              "image": "2104077764.jpg"
            }
          },
          {
            "id": "1000001",
            "cat_id": "2",
            "title": "Vegan Milk",
            "preferences": 0,
            "created_at": null,
            "updated_at": "2025-08-10T11:34:38.000Z",
            "images": [],
            "category": {
              "id": 2,
              "title": "Updated Test Category Batch12",
              "preferences": 2,
              "created_at": "2024-01-23 02:28:18",
              "updated_at": "2025-07-27 11:33:39",
              "image_id": 70,
              "image": "2104077764.jpg"
            }
          },
          {
            "id": "3",
            "cat_id": "2",
            "title": "Fresh Milky",
            "preferences": 1,
            "created_at": "2024-01-23T02:29:22.000Z",
            "updated_at": "2025-08-10T17:06:09.000Z",
            "images": [
              {
                "id": "79",
                "image": "44430322.jpg",
                "image_type": 1
              }
            ],
            "category": {
              "id": 2,
              "title": "Updated Test Category Batch12",
              "preferences": 2,
              "created_at": "2024-01-23 02:28:18",
              "updated_at": "2025-07-27 11:33:39",
              "image_id": 70,
              "image": "2104077764.jpg"
            }
          },
          {
            "id": "22",
            "cat_id": "2",
            "title": "Test SubCategory Batch12 1753616001137",
            "preferences": 1,
            "created_at": "2025-07-27T17:03:42.000Z",
            "updated_at": "2025-07-27T17:03:42.000Z",
            "images": [],
            "category": {
              "id": 2,
              "title": "Updated Test Category Batch12",
              "preferences": 2,
              "created_at": "2024-01-23 02:28:18",
              "updated_at": "2025-07-27 11:33:39",
              "image_id": 70,
              "image": "2104077764.jpg"
            }
          },
          {
            "id": "4",
            "cat_id": "2",
            "title": "Full Moon Ghee",
            "preferences": 2,
            "created_at": "2024-01-23T02:29:39.000Z",
            "updated_at": "2024-11-11T15:53:25.000Z",
            "images": [
              {
                "id": "76",
                "image": "2097934941.jpg",
                "image_type": 1
              }
            ],
            "category": {
              "id": 2,
              "title": "Updated Test Category Batch12",
              "preferences": 2,
              "created_at": "2024-01-23 02:28:18",
              "updated_at": "2025-07-27 11:33:39",
              "image_id": 70,
              "image": "2104077764.jpg"
            }
          }
        ]
      }
    },
    "notes": "",
    "priority": "high",
    "batchId": "1"
  },
  {
    "method": "Post",
    "path": "/api/sub_cat/upload_image",
    "laravelAuth": "mobile",
    "nodeAuth": "mobile",
    "params": {
      "pathParams": {
        "image": "any image",
        "id": "8",
        "image_type": "1"
      }
    },
    "expected": {
      "response": 200,
      "data": {
        "response": 200,
        "status": true,
        "file": "1906676804.jpeg",
        "message": "successfully"
      }
    },
    "actual": {
      "response": 400,
      "data": {
        "response": 400,
        "status": false,
        "message": "Unexpected field",
        "data": null
      }
    },
    "notes": "",
    "priority": "high",
    "batchId": "1"
  },
  {
    "method": "Post",
    "path": "/api/add_product",
    "laravelAuth": "mobile",
    "nodeAuth": "mobile",
    "params": {
      "pathParams": {
        "title": "ghee",
        "qty_text": "500ML",
        "sub_cat_id": "1",
        "price": "28",
        "mrp": "30",
        "offer_text": "nothing",
        "description": "I have worked with AMUL as a Sales Professional during 2003–2004. I am not getting into technical details here but explaining a general understanding of the Amul quality legacy.",
        "disclaimer": "Villagers are being paid on the basis of density of their milk produced and not just the quantity, amazing isn’t it? ( You know, this way villagers don’t adulterate the milk for getting a better price - Quality of Milk well assured).",
        "subscription": "1",
        "stock_qty": "1200",
        "tax": "2"
      }
    },
    "expected": {
      "response": 200,
      "data": {
        "response": 200,
        "status": true,
        "message": "successfully",
        "id": 1000001
      }
    },
    "actual": {
      "response": 201,
      "data": {
        "response": 201,
        "status": false,
        "message": "error"
      }
    },
    "notes": "",
    "priority": "high",
    "batchId": "1"
  },
  {
    "method": "Get",
    "path": "/api/get_order/user/545",
    "laravelAuth": "mobile",
    "nodeAuth": "mobile",
    "params": {
      "pathParams": null
    },
    "expected": {
      "response": 200,
      "data": {
        "response": 200,
        "data": [
          {
            "id": 942,
            "user_id": 545,
            "trasation_id": null,
            "order_type": 1,
            "order_amount": 350,
            "price": 350,
            "mrp": 350,
            "tax": 0,
            "qty": 1,
            "selected_days_for_weekly": null,
            "product_id": 58,
            "address_id": 603,
            "start_date": null,
            "subscription_type": null,
            "status": 2,
            "delivery_status": null,
            "order_status": 0,
            "created_at": "2024-05-22 21:40:33",
            "updated_at": "2024-05-22 21:40:56",
            "title": "Butter Murukku",
            "product_image": "1749701512.png",
            "qty_text": "500g",
            "name": "ashish",
            "s_phone": "09754472611",
            "flat_no": "223",
            "apartment_name": "shanti kunj",
            "area": "bangluru",
            "city": "Raipur",
            "pincode": 490020
          },
          {
            "id": 57,
            "user_id": 545,
            "trasation_id": 65,
            "order_type": 3,
            "order_amount": 46,
            "price": 46,
            "mrp": 46,
            "tax": 0,
            "qty": 1,
            "selected_days_for_weekly": null,
            "product_id": 38,
            "address_id": 1,
            "start_date": "2024-05-07",
            "subscription_type": null,
            "status": 1,
            "delivery_status": 1,
            "order_status": 0,
            "created_at": "2024-05-06 12:42:42",
            "updated_at": "2024-05-06 23:21:24",
            "title": "Desi Cow A2 Milk - One time",
            "product_image": "925457863.png",
            "qty_text": "500ml",
            "name": "Ashish Test",
            "s_phone": "1234567890",
            "flat_no": "xxx",
            "apartment_name": "yyyy",
            "area": "Kawardha",
            "city": "Updated City",
            "pincode": 560087
          },
          {
            "id": 2,
            "user_id": 545,
            "trasation_id": null,
            "order_type": 1,
            "order_amount": 45,
            "price": 46,
            "mrp": 46,
            "tax": 0,
            "qty": 1,
            "selected_days_for_weekly": null,
            "product_id": 2,
            "address_id": 1,
            "start_date": "2024-01-31",
            "subscription_type": 3,
            "status": 2,
            "delivery_status": 1,
            "order_status": 1,
            "created_at": "2024-01-30 20:41:39",
            "updated_at": "2024-06-22 23:25:37",
            "title": "Desi Cow (A2) Milk",
            "product_image": "434943713.jpg",
            "qty_text": "500ml",
            "name": "Ashish Test",
            "s_phone": "1234567890",
            "flat_no": "xxx",
            "apartment_name": "yyyy",
            "area": "Kawardha",
            "city": "Updated City",
            "pincode": 560087
          },
          {
            "id": 1,
            "user_id": 545,
            "trasation_id": null,
            "order_type": 1,
            "order_amount": 46,
            "price": 46,
            "mrp": 46,
            "tax": 0,
            "qty": 1,
            "selected_days_for_weekly": null,
            "product_id": 2,
            "address_id": 1,
            "start_date": "2024-01-31",
            "subscription_type": 3,
            "status": 2,
            "delivery_status": 1,
            "order_status": 1,
            "created_at": "2024-01-30 07:32:22",
            "updated_at": "2025-07-27 17:40:42",
            "title": "Desi Cow (A2) Milk",
            "product_image": "434943713.jpg",
            "qty_text": "500ml",
            "name": "Ashish Test",
            "s_phone": "1234567890",
            "flat_no": "xxx",
            "apartment_name": "yyyy",
            "area": "Kawardha",
            "city": "Updated City",
            "pincode": 560087
          }
        ]
      }
    },
    "actual": {
      "response": 404,
      "data": {
        "response": 404,
        "status": false,
        "message": "Route /api/get_order/user/545 not found",
        "data": null
      }
    },
    "notes": "",
    "priority": "high",
    "batchId": "1"
  },
  {
    "method": "Post",
    "path": "/api/product/delete_image",
    "laravelAuth": "mobile",
    "nodeAuth": "mobile",
    "params": {
      "pathParams": {
        "id": "7"
      }
    },
    "expected": {
      "response": 200,
      "data": {
        "response": 200,
        "status": true,
        "message": "successfully"
      }
    },
    "actual": {
      "response": 400,
      "data": {
        "response": 400
      }
    },
    "notes": "",
    "priority": "high",
    "batchId": "1"
  },
  {
    "method": "Get",
    "path": "/api/get_user",
    "laravelAuth": "mobile",
    "nodeAuth": "mobile",
    "params": {
      "pathParams": null
    },
    "expected": {
      "response": 200,
      "data": "message too long"
    },
    "actual": {
      "response": 200,
      "data": "message too long"
    },
    "notes": "",
    "priority": "high",
    "batchId": "1"
  },
  {
    "method": "Post",
    "path": "/api/delete_assign_user",
    "laravelAuth": "mobile",
    "nodeAuth": "mobile",
    "params": {
      "pathParams": {
        "id": "1216"
      }
    },
    "expected": {
      "response": 500,
      "data": "MESSAGE TOO LONG"
    },
    "actual": {
      "response": 201,
      "data": {
        "response": 201,
        "status": false,
        "message": "User assignment not found"
      }
    },
    "notes": "",
    "priority": "high",
    "batchId": "1"
  },
  {
    "method": "Post",
    "path": "/api/add_address",
    "laravelAuth": "mobile",
    "nodeAuth": "mobile",
    "params": {
      "pathParams": {
        "user_id": "5",
        "name": "sujay",
        "s_phone": "1234567890",
        "flat_no": "F No 1",
        "apartment_name": "Ap Name 1",
        "area": "Area 1",
        "landmark": "Landmark 1",
        "city": "City 1",
        "pincode": "492001"
      }
    },
    "expected": {
      "response": 200,
      "data": {
        "response": 200,
        "status": true,
        "message": "successfully",
        "id": 1000005
      }
    },
    "actual": {
      "response": 201,
      "data": {
        "response": 201,
        "status": true,
        "message": "Address added successfully",
        "data": {
          "id": 1000006,
          "user_id": 544,
          "name": "kathi",
          "s_phone": "1234567890",
          "flat_no": "F No 1",
          "apartment_name": "Ap Name 1",
          "area": "Area 1",
          "landmark": "Landmark 1",
          "city": "City 1",
          "pincode": 492001,
          "lat": null,
          "lng": null,
          "created_at": null,
          "updated_at": "2025-08-14 10:03:39",
          "preferences": null,
          "is_ring_bell": 0,
          "expected_delivery_time": null,
          "deliveryinstructions": null
        }
      }
    },
    "notes": "",
    "priority": "high",
    "batchId": "1"
  },
  {
    "method": "Post",
    "path": "/api/txn",
    "laravelAuth": "mobile",
    "nodeAuth": "mobile",
    "params": {
      "pathParams": null
    },
    "expected": {
      "response": 500,
      "data": "not working"
    },
    "actual": {
      "response": 200,
      "data": {
        "response": 200,
        "status": true,
        "message": "All transactions retrieved successfully",
        "data": [
          {
            "id": "156741",
            "order_id": null,
            "user_id": "559",
            "payment_id": null,
            "amount": 887.9,
            "description": "Amount debited from wallet",
            "type": 2,
            "payment_mode": 1,
            "created_at": "2025-08-10T17:51:46.000Z",
            "updated_at": "2025-08-10T17:51:46.000Z",
            "user": {
              "id": "559",
              "name": "Test_Ashish Khare",
              "phone": "8889990643"
            }
          },
          {
            "id": "156740",
            "order_id": null,
            "user_id": "559",
            "payment_id": "rz_gsshajag",
            "amount": 63,
            "description": "Credited to wallet cashbasck",
            "type": 1,
            "payment_mode": 1,
            "created_at": "2025-07-29T16:51:09.000Z",
            "updated_at": "2025-07-29T16:51:11.000Z",
            "user": {
              "id": "559",
              "name": "Test_Ashish Khare",
              "phone": "8889990643"
            }
          },
          {
            "id": "156739",
            "order_id": null,
            "user_id": "1216",
            "payment_id": null,
            "amount": 100,
            "description": "Test transaction",
            "type": 1,
            "payment_mode": 1,
            "created_at": "2025-07-28T08:35:18.000Z",
            "updated_at": "2025-07-28T08:35:20.000Z",
            "user": {
              "id": "1216",
              "name": "Test User Updated",
              "phone": "9739765567"
            }
          },
          {
            "id": "156737",
            "order_id": null,
            "user_id": "1216",
            "payment_id": null,
            "amount": 100,
            "description": "Test transaction",
            "type": 1,
            "payment_mode": 1,
            "created_at": "2025-07-28T08:29:14.000Z",
            "updated_at": "2025-07-28T08:29:16.000Z",
            "user": {
              "id": "1216",
              "name": "Test User Updated",
              "phone": "9739765567"
            }
          },
          {
            "id": "156736",
            "order_id": null,
            "user_id": "1216",
            "payment_id": null,
            "amount": 100,
            "description": "Test transaction",
            "type": 1,
            "payment_mode": 1,
            "created_at": "2025-07-28T08:17:13.000Z",
            "updated_at": "2025-07-28T08:17:14.000Z",
            "user": {
              "id": "1216",
              "name": "Test User Updated",
              "phone": "9739765567"
            }
          },
          {
            "id": "156734",
            "order_id": null,
            "user_id": "1216",
            "payment_id": null,
            "amount": 100,
            "description": "Test transaction",
            "type": 1,
            "payment_mode": 1,
            "created_at": "2025-07-28T08:13:48.000Z",
            "updated_at": "2025-07-28T08:13:50.000Z",
            "user": {
              "id": "1216",
              "name": "Test User Updated",
              "phone": "9739765567"
            }
          },
          {
            "id": "156732",
            "order_id": null,
            "user_id": "1216",
            "payment_id": null,
            "amount": 100,
            "description": "Test transaction",
            "type": 1,
            "payment_mode": 1,
            "created_at": "2025-07-28T08:09:06.000Z",
            "updated_at": "2025-07-28T08:09:07.000Z",
            "user": {
              "id": "1216",
              "name": "Test User Updated",
              "phone": "9739765567"
            }
          },
          {
            "id": "156730",
            "order_id": null,
            "user_id": "1216",
            "payment_id": null,
            "amount": 100,
            "description": "Test transaction",
            "type": 1,
            "payment_mode": 1,
            "created_at": "2025-07-28T08:07:00.000Z",
            "updated_at": "2025-07-28T08:07:02.000Z",
            "user": {
              "id": "1216",
              "name": "Test User Updated",
              "phone": "9739765567"
            }
          },
          {
            "id": "156728",
            "order_id": null,
            "user_id": "1216",
            "payment_id": null,
            "amount": 100,
            "description": "Test transaction",
            "type": 1,
            "payment_mode": 1,
            "created_at": "2025-07-28T08:03:57.000Z",
            "updated_at": "2025-07-28T08:03:59.000Z",
            "user": {
              "id": "1216",
              "name": "Test User Updated",
              "phone": "9739765567"
            }
          },
          {
            "id": "156726",
            "order_id": null,
            "user_id": "1216",
            "payment_id": null,
            "amount": 100,
            "description": "Test transaction",
            "type": 1,
            "payment_mode": 1,
            "created_at": "2025-07-28T08:03:05.000Z",
            "updated_at": "2025-07-28T08:03:07.000Z",
            "user": {
              "id": "1216",
              "name": "Test User Updated",
              "phone": "9739765567"
            }
          },
          {
            "id": "156724",
            "order_id": null,
            "user_id": "1216",
            "payment_id": null,
            "amount": 100,
            "description": "Test transaction",
            "type": 1,
            "payment_mode": 1,
            "created_at": "2025-07-28T08:01:40.000Z",
            "updated_at": "2025-07-28T08:01:42.000Z",
            "user": {
              "id": "1216",
              "name": "Test User Updated",
              "phone": "9739765567"
            }
          },
          {
            "id": "156722",
            "order_id": null,
            "user_id": "1216",
            "payment_id": null,
            "amount": 100,
            "description": "Test transaction",
            "type": 1,
            "payment_mode": 1,
            "created_at": "2025-07-28T07:53:28.000Z",
            "updated_at": "2025-07-28T07:53:30.000Z",
            "user": {
              "id": "1216",
              "name": "Test User Updated",
              "phone": "9739765567"
            }
          },
          {
            "id": "156720",
            "order_id": null,
            "user_id": "1216",
            "payment_id": null,
            "amount": 100,
            "description": "Test transaction",
            "type": 1,
            "payment_mode": 1,
            "created_at": "2025-07-28T07:09:35.000Z",
            "updated_at": "2025-07-28T07:09:36.000Z",
            "user": {
              "id": "1216",
              "name": "Test User Updated",
              "phone": "9739765567"
            }
          },
          {
            "id": "156718",
            "order_id": null,
            "user_id": "1216",
            "payment_id": null,
            "amount": 100,
            "description": "Test transaction",
            "type": 1,
            "payment_mode": 1,
            "created_at": "2025-07-28T06:56:38.000Z",
            "updated_at": "2025-07-28T06:56:40.000Z",
            "user": {
              "id": "1216",
              "name": "Test User Updated",
              "phone": "9739765567"
            }
          },
          {
            "id": "156716",
            "order_id": null,
            "user_id": "1216",
            "payment_id": null,
            "amount": 100,
            "description": "Test transaction",
            "type": 1,
            "payment_mode": 1,
            "created_at": "2025-07-28T06:54:11.000Z",
            "updated_at": "2025-07-28T06:54:13.000Z",
            "user": {
              "id": "1216",
              "name": "Test User Updated",
              "phone": "9739765567"
            }
          },
          {
            "id": "156714",
            "order_id": null,
            "user_id": "1216",
            "payment_id": null,
            "amount": 100,
            "description": "Test transaction",
            "type": 1,
            "payment_mode": 1,
            "created_at": "2025-07-28T06:49:43.000Z",
            "updated_at": "2025-07-28T06:49:44.000Z",
            "user": {
              "id": "1216",
              "name": "Test User Updated",
              "phone": "9739765567"
            }
          },
          {
            "id": "156712",
            "order_id": null,
            "user_id": "1216",
            "payment_id": null,
            "amount": 100,
            "description": "Test transaction",
            "type": 1,
            "payment_mode": 1,
            "created_at": "2025-07-28T06:46:09.000Z",
            "updated_at": "2025-07-28T06:46:11.000Z",
            "user": {
              "id": "1216",
              "name": "Test User Updated",
              "phone": "9739765567"
            }
          },
          {
            "id": "156710",
            "order_id": null,
            "user_id": "1216",
            "payment_id": null,
            "amount": 100,
            "description": "Test transaction",
            "type": 1,
            "payment_mode": 1,
            "created_at": "2025-07-28T06:44:50.000Z",
            "updated_at": "2025-07-28T06:44:52.000Z",
            "user": {
              "id": "1216",
              "name": "Test User Updated",
              "phone": "9739765567"
            }
          },
          {
            "id": "156708",
            "order_id": null,
            "user_id": "1216",
            "payment_id": null,
            "amount": 100,
            "description": "Test transaction",
            "type": 1,
            "payment_mode": 1,
            "created_at": "2025-07-28T06:36:13.000Z",
            "updated_at": "2025-07-28T06:36:14.000Z",
            "user": {
              "id": "1216",
              "name": "Test User Updated",
              "phone": "9739765567"
            }
          },
          {
            "id": "156706",
            "order_id": null,
            "user_id": "1216",
            "payment_id": null,
            "amount": 100,
            "description": "Test transaction",
            "type": 1,
            "payment_mode": 1,
            "created_at": "2025-07-28T06:26:01.000Z",
            "updated_at": "2025-07-28T06:26:03.000Z",
            "user": {
              "id": "1216",
              "name": "Test User Updated",
              "phone": "9739765567"
            }
          }
        ],
        "pagination": {
          "current_page": 1,
          "per_page": 20,
          "total": 156690,
          "total_pages": 7835
        }
      }
    },
    "notes": "",
    "priority": "high",
    "batchId": "1"
  }
]